Access covariates for MERMAID data • mermaidrcovariates
…
You can see that the results for each sample event contains 30 rows – one value for each of the 30 days we requested.

To expand the zonal statistics, we use unnest(), and are able to see that we have the mean value for each date:

daily_sst %>%
  select(site, sample_date, zonal_statistics) %>%
  unnest(zonal_statistics)
#> # A tibble: 300 × 7
#>    site  sample_date covariate                     date        band spatial_stat
#>    <chr> <date>      <chr>                         <date>     <dbl> <chr>       
#>  1 LW04  2019-09-25  Daily Sea Surface Temperature 2019-09-25     1 mean        
#>  2 LW04  2019-09-25  Daily Sea Surface Temperature 2019-09-24     1 mean        
#>  3 LW04  2019-09-25  Daily Sea Surface Temperature 2019-09-23     1 mean        
#>  4 LW04  2019-09-25  Daily Sea Surface Temperature 2019-09-22     1 mean        
#>  5 LW04  2019-09-25  Daily Sea Surface Temperature 2019-09-21     1 mean        
#>  6 LW04  2019-09-25  Daily Sea Surface Temperature 2019-09-20     1 mean        
#>  7 LW04  2019-09-25  Daily Sea Surface Temperature 2019-09-19     1 mean        
#>  8 LW04  2019-09-25  Daily Sea Surface Temperature 2019-09-18     1 mean        
#>  9 LW04  2019-09-25  Daily Sea Surface Temperature 2019-09-17     1 mean        
#> 10 LW04  2019-09-25  Daily Sea Surface Temperature 2019-09-16     1 mean        
#>    value
#>    <dbl>
#>  1  26.5
#>  2  26.5
#>  3  26.5
#>  4  26.7
#>  5  27.0
#>  6  26.9
#>  7  26.8
#>  8  26.7
#>  9  26.7
#> 10  26.8
#> # ℹ 290 more rows
…
