…
You can see that the results for each sample event contains 30 rows –
one value for each of the 30 days we requested.

To expand the zonal statistics, we use `unnest()`, and are able to see
that we have the mean value for each date:

``` r

daily_sst %>%
  select(site, sample_date, zonal_statistics) %>%
  unnest(zonal_statistics)
#> # A tibble: 300 × 7
#>    site  sample_date
#>    <chr> <date>     
#>  1 LW04  2019-09-25 
#>  2 LW04  2019-09-25 
#>  3 LW04  2019-09-25 
#>  4 LW04  2019-09-25 
#>  5 LW04  2019-09-25 
#>  6 LW04  2019-09-25 
#>  7 LW04  2019-09-25 
#>  8 LW04  2019-09-25 
#>  9 LW04  2019-09-25 
#> 10 LW04  2019-09-25 
#>    covariate                                                      date      
#>    <chr>                                                          <date>    
#>  1 Daily Global 5km Satellite Sea Surface Temperature (CoralTemp) 2019-09-25
#>  2 Daily Global 5km Satellite Sea Surface Temperature (CoralTemp) 2019-09-24
#>  3 Daily Global 5km Satellite Sea Surface Temperature (CoralTemp) 2019-09-23
#>  4 Daily Global 5km Satellite Sea Surface Temperature (CoralTemp) 2019-09-22
#>  5 Daily Global 5km Satellite Sea Surface Temperature (CoralTemp) 2019-09-21
#>  6 Daily Global 5km Satellite Sea Surface Temperature (CoralTemp) 2019-09-20
#>  7 Daily Global 5km Satellite Sea Surface Temperature (CoralTemp) 2019-09-19
#>  8 Daily Global 5km Satellite Sea Surface Temperature (CoralTemp) 2019-09-18
#>  9 Daily Global 5km Satellite Sea Surface Temperature (CoralTemp) 2019-09-17
#> 10 Daily Global 5km Satellite Sea Surface Temperature (CoralTemp) 2019-09-16
#>     band spatial_stat value
#>    <dbl> <chr>        <dbl>
#>  1     1 mean          26.5
#>  2     1 mean          26.4
#>  3     1 mean          26.5
#>  4     1 mean          26.7
#>  5     1 mean          27.0
#>  6     1 mean          26.9
#>  7     1 mean          26.8
#>  8     1 mean          26.7
#>  9     1 mean          26.7
#> 10     1 mean          26.8
#> # ℹ 290 more rows
```
…
