…
``` r
max_dhw <- se %>%
  get_zonal_statistics("noaa-monthly-max-dhw", n_days = 365, buffer = 1000, stats = "max")
```

The covariates are returned in a format that need to be expanded. Once
they are, you can see they contain start and end date of the data used
for the covariates, the band, and the summarised value.

``` r
max_dhw %>%
  unnest(covariates)
#> # A tibble: 72 × 11
#>    site  sample_date latitude longitude hard_coral_cover covariate           
#>    <chr> <date>         <dbl>     <dbl>            <dbl> <chr>               
#>  1 BA09  2019-09-26     -17.4      178.             12.3 noaa-monthly-max-dhw
#>  2 BA16  2019-09-27     -17.2      178.             10.7 noaa-monthly-max-dhw
#>  3 GS03  2019-10-08     -16.4      178.             52   noaa-monthly-max-dhw
#>  4 BA15  2019-09-27     -17.2      178.             25   noaa-monthly-max-dhw
#>  5 YA02  2019-09-30     -17.0      177.             26.3 noaa-monthly-max-dhw
#>  6 LW04  2019-09-25     -17.6      177.             11.7 noaa-monthly-max-dhw
#>  7 IP3.5 2019-10-04     -16.4      179.             52.3 noaa-monthly-max-dhw
#>  8 BA11  2019-09-27     -17.3      178.             23   noaa-monthly-max-dhw
#>  9 GS05  2019-10-08     -16.4      178.             40.3 noaa-monthly-max-dhw
#> 10 YQ02  2019-10-03     -16.6      179.             59   noaa-monthly-max-dhw
#>    start_date end_date    band statistic value
#>    <date>     <date>     <dbl> <chr>     <dbl>
#>  1 2018-10-01 2019-09-01     1 max        8.36
#>  2 2018-10-01 2019-09-01     1 max        8.24
#>  3 2018-11-01 2019-10-01     1 max        5.96
#>  4 2018-10-01 2019-09-01     1 max        8.24
#>  5 2018-10-01 2019-09-01     1 max        8.79
#>  6 2018-10-01 2019-09-01     1 max       11.3 
#>  7 2018-11-01 2019-10-01     1 max        4.25
#>  8 2018-10-01 2019-09-01     1 max        8.57
#>  9 2018-11-01 2019-10-01     1 max        6.30
#> 10 2018-11-01 2019-10-01     1 max        8.25
#> # ℹ 62 more rows
```
…
