…
``` r
max_sst <- se %>%
    get_summary_zonal_statistics("Daily Sea Surface Temperature", n_days = 10, radius = 1000, spatial_stats = "mean", temporal_stats = "max")
```

The covariates are returned in a format that need to be expanded. Once
they are, you can see they contain start and end date of the data used
for the covariates, the band, and the summarised value.

``` r
max_sst %>%
  unnest(covariates)
#> # A tibble: 72 × 12
#>    site  latitude longitude sample_date covariate                     start_date
#>    <chr>    <dbl>     <dbl> <date>      <chr>                         <date>    
#>  1 BA02     -17.4      178. 2019-09-26  Daily Sea Surface Temperature 2019-09-17
#>  2 BA03     -17.4      178. 2019-09-28  Daily Sea Surface Temperature 2019-09-19
#>  3 BA04     -17.4      178. 2019-09-28  Daily Sea Surface Temperature 2019-09-19
#>  4 BA05     -17.4      178. 2019-09-26  Daily Sea Surface Temperature 2019-09-17
#>  5 BA07     -17.5      178. 2019-09-26  Daily Sea Surface Temperature 2019-09-17
#>  6 BA08     -17.4      178. 2019-09-28  Daily Sea Surface Temperature 2019-09-19
#>  7 BA09     -17.4      178. 2019-09-26  Daily Sea Surface Temperature 2019-09-17
#>  8 BA10     -17.3      178. 2019-09-28  Daily Sea Surface Temperature 2019-09-19
#>  9 BA11     -17.3      178. 2019-09-27  Daily Sea Surface Temperature 2019-09-18
#> 10 BA12     -17.3      178. 2019-09-27  Daily Sea Surface Temperature 2019-09-18
#>    end_date   n_dates  band temporal_stat spatial_stat value
#>    <date>       <int> <dbl> <chr>         <chr>        <dbl>
#>  1 2019-09-26     720     1 max           mean          26.8
#>  2 2019-09-28     720     1 max           mean          26.9
#>  3 2019-09-28     720     1 max           mean          27.0
#>  4 2019-09-26     720     1 max           mean          27.0
#>  5 2019-09-26     720     1 max           mean          27.0
#>  6 2019-09-28     720     1 max           mean          26.9
#>  7 2019-09-26     720     1 max           mean          26.9
#>  8 2019-09-28     720     1 max           mean          26.8
#>  9 2019-09-27     720     1 max           mean          26.9
#> 10 2019-09-27     720     1 max           mean          26.9
#> # ℹ 62 more rows
```
