…
``` r
summary_sampleevents <- mermaid_get_summary_sampleevents()

gfcr_summary_sampleevents <- summary_sampleevents %>%
  filter(str_detect(tags, "GFCR")) %>%
  filter(!is.na(`benthicpit_percent_cover_benthic_category_avg_Hard coral`)) %>%
  rename(hard_coral_cover = `benthicpit_percent_cover_benthic_category_avg_Hard coral`)

gfcr_summary_sampleevents
```

    ## # A tibble: 29 × 377
    ##    project_id   project tags  country site_id site  latitude longitude reef_type
    ##    <chr>        <chr>   <chr> <chr>   <chr>   <chr>    <dbl>     <dbl> <chr>    
    ##  1 54d68642-48… SLCRI … Inte… Sri La… 4affc2… Bar …     8.41      79.7 patch    
    ##  2 54d68642-48… SLCRI … Inte… Sri La… e61f1d… Bar …     8.37      79.7 patch    
    ##  3 54d68642-48… SLCRI … Inte… Sri La… 168b07… Hipo…     8.27      79.7 patch    
    ##  4 54d68642-48… SLCRI … Inte… Sri La… 51f953… Kand…     8.25      79.7 patch    
    ##  5 54d68642-48… SLCRI … Inte… Sri La… 630643… Kuda…     8.24      79.7 patch    
    ##  6 54d68642-48… SLCRI … Inte… Sri La… 1363cc… Kuda…     8.24      79.7 patch    
    ##  7 54d68642-48… SLCRI … Inte… Sri La… 3d49dc… Sea …     8.17      79.7 fringing 
    ##  8 54d68642-48… SLCRI … Inte… Sri La… 3d49dc… Sea …     8.17      79.7 fringing 
    ##  9 54d68642-48… SLCRI … Inte… Sri La… 0c41df… St. …     8.14      79.7 patch    
    ## 10 54d68642-48… SLCRI … Inte… Sri La… 74f31a… Thal…     8.12      79.7 patch    
    ## # ℹ 19 more rows
    ## # ℹ 368 more variables: reef_zone <chr>, reef_exposure <chr>,
    ## #   management_id <chr>, management <chr>, management_est_year <int>,
    ## #   management_size <dbl>, management_parties <chr>,
    ## #   management_compliance <chr>, management_rules <chr>, sample_date <date>,
    ## #   data_policy_beltfish <chr>, data_policy_benthiclit <chr>,
    ## #   data_policy_benthicpit <chr>, data_policy_benthicpqt <chr>, …
…
## Get maximum DHW for previous year

Focus on degree heating weeks (DHW), and get the max (of the monhtly
average) for the 365 days prior to the survey data. Review the survey
data:

``` r
gfcr_summary_sampleevents %>%
  distinct(project, site, latitude, longitude, sample_date)
```

    ## # A tibble: 29 × 5
    ##    project                 site                  latitude longitude sample_date
    ##    <chr>                   <chr>                    <dbl>     <dbl> <date>     
    ##  1 SLCRI Bar Reef Seascape Bar Reef Deep             8.41      79.7 2025-03-16 
    ##  2 SLCRI Bar Reef Seascape Bar Reef Shallow          8.37      79.7 2025-03-16 
    ##  3 SLCRI Bar Reef Seascape Hipolis Reef Deep         8.27      79.7 2025-03-20 
    ##  4 SLCRI Bar Reef Seascape KandaKuliya Reef Deep     8.25      79.7 2025-03-19 
    ##  5 SLCRI Bar Reef Seascape Kudawa reef Deep          8.24      79.7 2025-03-17 
    ##  6 SLCRI Bar Reef Seascape Kudawa Reef Shallow       8.24      79.7 2025-03-17 
    ##  7 SLCRI Bar Reef Seascape Sea Guard Reef Deep       8.17      79.7 2024-03-19 
    ##  8 SLCRI Bar Reef Seascape Sea Guard Reef Deep       8.17      79.7 2025-03-19 
    ##  9 SLCRI Bar Reef Seascape St. Annes Reef Deep       8.14      79.7 2025-03-20 
    ## 10 SLCRI Bar Reef Seascape Thalawila Reef Deep       8.12      79.7 2025-03-15 
    ## # ℹ 19 more rows
…
``` r
max_dhw <- readRDS(here::here("scratch", "max_dhw.rds"))
```

Looka the returned data, keeping only the project information, site,
survey date, hard coral cover, and covariates.

``` r
max_dhw <- max_dhw %>%
  select(project, country, site, sample_date, hard_coral_cover, covariates)

max_dhw
```

    ## # A tibble: 29 × 6
    ##    project                 country site  sample_date hard_coral_cover covariates
    ##    <chr>                   <chr>   <chr> <date>                 <dbl> <list>    
    ##  1 SLCRI Bar Reef Seascape Sri La… Bar … 2025-03-16              12.5 <tibble>  
    ##  2 SLCRI Bar Reef Seascape Sri La… Bar … 2025-03-16               0   <tibble>  
    ##  3 SLCRI Bar Reef Seascape Sri La… Hipo… 2025-03-20               2.5 <tibble>  
    ##  4 SLCRI Bar Reef Seascape Sri La… Kand… 2025-03-19              24   <tibble>  
    ##  5 SLCRI Bar Reef Seascape Sri La… Kuda… 2025-03-17               4   <tibble>  
    ##  6 SLCRI Bar Reef Seascape Sri La… Kuda… 2025-03-17               0   <tibble>  
    ##  7 SLCRI Bar Reef Seascape Sri La… Sea … 2024-03-19              10   <tibble>  
    ##  8 SLCRI Bar Reef Seascape Sri La… Sea … 2025-03-19              16   <tibble>  
    ##  9 SLCRI Bar Reef Seascape Sri La… St. … 2025-03-20              13.5 <tibble>  
    ## 10 SLCRI Bar Reef Seascape Sri La… Thal… 2025-03-15              11.5 <tibble>  
    ## # ℹ 19 more rows
…
